{
  "swagger": "2.0",
  "info": {},
  "paths": {
    "/auth/changepassword": {
      "post": {
        "security": [
          {
            "Bearer": [
              "[]"
            ]
          }
        ],
        "tags": [
          "auth"
        ],
        "summary": "Смена пароля.",
        "operationId": "ChangePasswordRequest",
        "parameters": [
          {
            "name": "Body",
            "in": "body",
            "schema": {
              "$ref": "#/definitions/ChangePasswordRequest"
            }
          }
        ]
      }
    },
    "/auth/login": {
      "post": {
        "tags": [
          "auth"
        ],
        "summary": "Авторизация пользователя.",
        "operationId": "loginRequest",
        "parameters": [
          {
            "name": "Body",
            "in": "body",
            "schema": {
              "$ref": "#/definitions/LoginRequest"
            }
          }
        ],
        "responses": {
          "200": {
            "$ref": "#/responses/loginResponse"
          }
        }
      }
    },
    "/auth/register": {
      "post": {
        "tags": [
          "auth"
        ],
        "summary": "Регистрация пользователя.",
        "operationId": "registerRequest",
        "parameters": [
          {
            "name": "Body",
            "in": "body",
            "schema": {
              "$ref": "#/definitions/RegisterRequest"
            }
          }
        ],
        "responses": {
          "200": {
            "$ref": "#/responses/registerResponse"
          }
        }
      }
    },
    "/delete": {
      "delete": {
        "security": [
          {
            "Bearer": [
              "[]"
            ]
          }
        ],
        "tags": [
          "vacancy"
        ],
        "summary": "Удалить вакансию.",
        "operationId": "vacancyDeleteRequest",
        "parameters": [
          {
            "x-go-name": "VacancyId",
            "name": "vacancyId",
            "in": "body",
            "schema": {
              "type": "string"
            }
          }
        ]
      }
    },
    "/get": {
      "post": {
        "security": [
          {
            "Bearer": [
              "[]"
            ]
          }
        ],
        "tags": [
          "vacancy"
        ],
        "summary": "Поиск вакансии по ID.",
        "operationId": "vacancyIdGetRequest",
        "parameters": [
          {
            "x-go-name": "VacancyId",
            "name": "vacancyId",
            "in": "body",
            "schema": {
              "type": "string"
            }
          }
        ]
      }
    },
    "/list": {
      "get": {
        "security": [
          {
            "Bearer": [
              "[]"
            ]
          }
        ],
        "tags": [
          "vacancy"
        ],
        "summary": "Список всех вакансий.",
        "operationId": "vacancyListRequest"
      }
    },
    "/search": {
      "post": {
        "security": [
          {
            "Bearer": [
              "[]"
            ]
          }
        ],
        "tags": [
          "vacancy"
        ],
        "summary": "Создание вакансии.",
        "operationId": "vacancySearchRequest",
        "parameters": [
          {
            "name": "Body",
            "in": "body",
            "schema": {
              "$ref": "#/definitions/Vacancy"
            }
          }
        ]
      }
    }
  },
  "definitions": {
    "ChangePasswordRequest": {
      "type": "object",
      "properties": {
        "new_password": {
          "type": "string",
          "x-go-name": "NewPassword"
        },
        "old_password": {
          "type": "string",
          "x-go-name": "OldPassword"
        },
        "retype_new_password": {
          "type": "string",
          "x-go-name": "RetypeNewPassword"
        }
      },
      "x-go-package": "gitlab.com/antoxa2614/parser_user_microservices/go-parser/model"
    },
    "ChangePasswordResponse": {
      "type": "object",
      "properties": {
        "data": {
          "$ref": "#/definitions/Data"
        },
        "error_code": {
          "type": "integer",
          "format": "int64",
          "x-go-name": "ErrorCode"
        },
        "success": {
          "type": "boolean",
          "x-go-name": "Success"
        }
      },
      "x-go-package": "gitlab.com/antoxa2614/parser_user_microservices/go-parser/model"
    },
    "Data": {
      "type": "object",
      "properties": {
        "message": {
          "type": "string",
          "x-go-name": "Message"
        }
      },
      "x-go-package": "gitlab.com/antoxa2614/parser_user_microservices/go-parser/model"
    },
    "LoginData": {
      "type": "object",
      "properties": {
        "access_token": {
          "type": "string",
          "x-go-name": "AccessToken"
        },
        "message": {
          "type": "string",
          "x-go-name": "Message"
        },
        "refresh_token": {
          "type": "string",
          "x-go-name": "RefreshToken"
        }
      },
      "x-go-package": "gitlab.com/antoxa2614/parser_user_microservices/go-parser/model"
    },
    "LoginRequest": {
      "type": "object",
      "properties": {
        "email": {
          "type": "string",
          "x-go-name": "Email"
        },
        "password": {
          "type": "string",
          "x-go-name": "Password"
        }
      },
      "x-go-package": "gitlab.com/antoxa2614/parser_user_microservices/go-parser/model"
    },
    "LoginResponse": {
      "type": "object",
      "properties": {
        "data": {
          "$ref": "#/definitions/LoginData"
        },
        "error_code": {
          "type": "integer",
          "format": "int64",
          "x-go-name": "ErrorCode"
        },
        "success": {
          "type": "boolean",
          "x-go-name": "Success"
        }
      },
      "x-go-package": "gitlab.com/antoxa2614/parser_user_microservices/go-parser/model"
    },
    "RegisterRequest": {
      "type": "object",
      "properties": {
        "email": {
          "type": "string",
          "x-go-name": "Email"
        },
        "password": {
          "type": "string",
          "x-go-name": "Password"
        },
        "retype_password": {
          "type": "string",
          "x-go-name": "RetypePassword"
        }
      },
      "x-go-package": "gitlab.com/antoxa2614/parser_user_microservices/go-parser/model"
    },
    "RegisterResponse": {
      "type": "object",
      "properties": {
        "data": {
          "$ref": "#/definitions/Data"
        },
        "error_code": {
          "type": "integer",
          "format": "int64",
          "x-go-name": "ErrorCode"
        },
        "success": {
          "type": "boolean",
          "x-go-name": "Success"
        }
      },
      "x-go-package": "gitlab.com/antoxa2614/parser_user_microservices/go-parser/model"
    },
    "Vacancy": {
      "type": "object",
      "properties": {
        "@context": {
          "type": "string",
          "x-go-name": "Context"
        },
        "@type": {
          "type": "string",
          "x-go-name": "Type"
        },
        "datePosted": {
          "type": "string",
          "x-go-name": "DatePosted"
        },
        "description": {
          "type": "string",
          "x-go-name": "Description"
        },
        "id": {
          "type": "string",
          "x-go-name": "ID"
        },
        "title": {
          "type": "string",
          "x-go-name": "Title"
        }
      },
      "x-go-package": "gitlab.com/antoxa2614/parser_user_microservices/go-parser/model"
    }
  },
  "responses": {
    "ChangePasswordResponse": {
      "description": "",
      "schema": {
        "$ref": "#/definitions/ChangePasswordResponse"
      }
    },
    "loginResponse": {
      "description": "",
      "schema": {
        "$ref": "#/definitions/LoginResponse"
      }
    },
    "registerResponse": {
      "description": "",
      "schema": {
        "$ref": "#/definitions/RegisterResponse"
      }
    },
    "vacancyDeleteResponse": {
      "description": "",
      "schema": {
        "$ref": "#/definitions/Vacancy"
      }
    },
    "vacancyIdGetResponse": {
      "description": "",
      "schema": {
        "$ref": "#/definitions/Vacancy"
      }
    },
    "vacancyListResponse": {
      "description": "",
      "schema": {
        "type": "array",
        "items": {
          "$ref": "#/definitions/Vacancy"
        }
      }
    },
    "vacancySearchResponse": {
      "description": "",
      "schema": {
        "$ref": "#/definitions/Vacancy"
      }
    }
  }
}